^C:\USERS\IHANTOLA\MINIPS\SOURCE3\SOURCE\HOST\TESTAPP\NETWORK.C|C:\USERS\IHANTOLA\MINIPS\SOURCE3\SOURCE\HOST\TESTAPP\TESTAPP.C
C:\USERS\IHANTOLA\MINIPS\SOURCE3\SOURCE\HOST\TESTAPP\DEBUG\NETWORK.OBJ
C:\USERS\IHANTOLA\MINIPS\SOURCE3\SOURCE\HOST\TESTAPP\DEBUG\TESTAPP.OBJ
^C:\USERS\IHANTOLA\MINIPS\SOURCE3\SOURCE\HOST\TESTAPP\NETWORK.C
C:\USERS\IHANTOLA\MINIPS\SOURCE3\SOURCE\HOST\TESTAPP\DEBUG\VC110.PDB
^C:\USERS\IHANTOLA\MINIPS\SOURCE3\SOURCE\HOST\TESTAPP\TESTAPP.C
C:\USERS\IHANTOLA\MINIPS\SOURCE3\SOURCE\HOST\TESTAPP\DEBUG\VC110.PDB
C:\USERS\IHANTOLA\MINIPS\SOURCE3\SOURCE\HOST\TESTAPP\DEBUG\TESTAPP.OBJ
